<?xml version="1.0" encoding="UTF-8" standalone="no"?>
<svg
   xmlns:dc="http://purl.org/dc/elements/1.1/"
   xmlns:cc="http://creativecommons.org/ns#"
   xmlns:rdf="http://www.w3.org/1999/02/22-rdf-syntax-ns#"
   xmlns:svg="http://www.w3.org/2000/svg"
   xmlns="http://www.w3.org/2000/svg"
   xmlns:sodipodi="http://sodipodi.sourceforge.net/DTD/sodipodi-0.dtd"
   xmlns:inkscape="http://www.inkscape.org/namespaces/inkscape"
   version="1.1"
   width="696"
   height="420"
   id="svg578"
   sodipodi:docname="night_class_diagram.svg"
   inkscape:version="0.92.3 (2405546, 2018-03-11)">
  <metadata
     id="metadata582">
    <rdf:RDF>
      <cc:Work
         rdf:about="">
        <dc:format>image/svg+xml</dc:format>
        <dc:type
           rdf:resource="http://purl.org/dc/dcmitype/StillImage" />
        <dc:title></dc:title>
      </cc:Work>
    </rdf:RDF>
  </metadata>
  <sodipodi:namedview
     pagecolor="#ffffff"
     bordercolor="#666666"
     borderopacity="1"
     objecttolerance="10"
     gridtolerance="10"
     guidetolerance="10"
     inkscape:pageopacity="1"
     inkscape:pageshadow="2"
     inkscape:window-width="640"
     inkscape:window-height="480"
     id="namedview580"
     showgrid="false"
     inkscape:zoom="1.0067854"
     inkscape:cx="138.92423"
     inkscape:cy="206.50291"
     inkscape:current-layer="svg578" />
  <defs
     id="defs2" />
  <g
     id="g118"
     transform="translate(-82,-30)">
    <rect
       style="opacity:0.2;fill:#c0c0c0;stroke:none"
       id="rect116"
       height="117"
       width="199.74072"
       y="47"
       x="130" />
  </g>
  <g
     id="g122"
     transform="translate(-82,-30)">
    <rect
       style="fill:#ffffff;stroke:none"
       id="rect120"
       height="117"
       width="199.74072"
       y="40"
       x="123" />
  </g>
  <g
     id="g126"
     transform="translate(-82,-30)">
    <path
       style="fill:none;stroke:#000000;stroke-miterlimit:10"
       inkscape:connector-curvature="0"
       id="path124"
       stroke-miterlimit="10"
       d="M 123,40 H 322.74072 V 157 H 123 Z" />
  </g>
  <g
     id="g130"
     transform="translate(-82,-30)">
    <path
       style="fill:none;stroke:#000000;stroke-miterlimit:10"
       inkscape:connector-curvature="0"
       id="path128"
       stroke-miterlimit="10"
       d="M 123,65 H 322.74072" />
  </g>
  <g
     id="g134"
     transform="translate(-82,-30)">
    <path
       style="fill:none;stroke:#000000;stroke-miterlimit:10"
       inkscape:connector-curvature="0"
       id="path132"
       stroke-miterlimit="10"
       d="M 123,148 H 322.74072" />
  </g>
  <g
     id="g142"
     transform="translate(-82,-30)">
    <g
       id="g140">
      <path
         style="fill:none;stroke:none"
         inkscape:connector-curvature="0"
         d=""
         id="path136" />
      <text
         style="font-style:normal;font-weight:bold;font-size:13px;font-family:Arial;text-decoration:none;text-decoration-line:none;fill:#000000;stroke:none"
         id="text138"
         y="59.5"
         x="209.14673"
         text-decoration="none"
         font-weight="bold"
         font-style="normal"
         font-size="13px">User</text>
    </g>
  </g>
  <g
     id="g150"
     transform="translate(-82,-30)">
    <g
       id="g148">
      <path
         style="fill:none;stroke:none"
         inkscape:connector-curvature="0"
         d=""
         id="path144" />
      <text
         style="font-style:normal;font-weight:normal;font-size:13px;font-family:Arial;text-decoration:none;text-decoration-line:none;fill:#000000;stroke:none"
         id="text146"
         y="82.5"
         x="128"
         text-decoration="none"
         font-weight="normal"
         font-style="normal"
         font-size="13px">+username: string</text>
    </g>
  </g>
  <g
     id="g158"
     transform="translate(-82,-30)">
    <g
       id="g156">
      <path
         style="fill:none;stroke:none"
         inkscape:connector-curvature="0"
         d=""
         id="path152" />
      <text
         style="font-style:normal;font-weight:normal;font-size:13px;font-family:Arial;text-decoration:none;text-decoration-line:none;fill:#000000;stroke:none"
         id="text154"
         y="97.5"
         x="128"
         text-decoration="none"
         font-weight="normal"
         font-style="normal"
         font-size="13px">+mail: string</text>
    </g>
  </g>
  <g
     id="g166"
     transform="translate(-82,-30)">
    <g
       id="g164">
      <path
         style="fill:none;stroke:none"
         inkscape:connector-curvature="0"
         d=""
         id="path160" />
      <text
         style="font-style:normal;font-weight:normal;font-size:13px;font-family:Arial;text-decoration:none;text-decoration-line:none;fill:#000000;stroke:none"
         id="text162"
         y="112.5"
         x="128"
         text-decoration="none"
         font-weight="normal"
         font-style="normal"
         font-size="13px">+password: string</text>
    </g>
  </g>
  <g
     id="g174"
     transform="translate(-82,-30)">
    <g
       id="g172">
      <path
         style="fill:none;stroke:none"
         inkscape:connector-curvature="0"
         d=""
         id="path168" />
      <text
         style="font-style:normal;font-weight:normal;font-size:13px;font-family:Arial;text-decoration:none;text-decoration-line:none;fill:#000000;stroke:none"
         id="text170"
         y="127.5"
         x="128"
         text-decoration="none"
         font-weight="normal"
         font-style="normal"
         font-size="13px">+playedGames: array = Game</text>
    </g>
  </g>
  <g
     id="g182"
     transform="translate(-82,-30)">
    <g
       id="g180">
      <path
         style="fill:none;stroke:none"
         inkscape:connector-curvature="0"
         d=""
         id="path176" />
      <text
         style="font-style:normal;font-weight:normal;font-size:13px;font-family:Arial;text-decoration:none;text-decoration-line:none;fill:#000000;stroke:none"
         id="text178"
         y="142.5"
         x="128"
         text-decoration="none"
         font-weight="normal"
         font-style="normal"
         font-size="13px">+masteredGames: array = Game</text>
    </g>
  </g>
  <g
     id="g186"
     transform="translate(-82,-30)">
    <rect
       style="opacity:0.2;fill:#c0c0c0;stroke:none"
       id="rect184"
       height="102"
       width="196.86523"
       y="279"
       x="131" />
  </g>
  <g
     id="g190"
     transform="translate(-82,-30)">
    <rect
       style="fill:#ffffff;stroke:none"
       id="rect188"
       height="102"
       width="196.86523"
       y="272"
       x="124" />
  </g>
  <g
     id="g194"
     transform="translate(-82,-30)">
    <path
       style="fill:none;stroke:#000000;stroke-miterlimit:10"
       inkscape:connector-curvature="0"
       id="path192"
       stroke-miterlimit="10"
       d="M 124,272 H 320.86523 V 374 H 124 Z" />
  </g>
  <g
     id="g198"
     transform="translate(-82,-30)">
    <path
       style="fill:none;stroke:#000000;stroke-miterlimit:10"
       inkscape:connector-curvature="0"
       id="path196"
       stroke-miterlimit="10"
       d="M 124,297 H 320.86523" />
  </g>
  <g
     id="g202"
     transform="translate(-82,-30)">
    <path
       style="fill:none;stroke:#000000;stroke-miterlimit:10"
       inkscape:connector-curvature="0"
       id="path200"
       stroke-miterlimit="10"
       d="M 124,365 H 320.86523" />
  </g>
  <g
     id="g210"
     transform="translate(-82,-30)">
    <g
       id="g208">
      <path
         style="fill:none;stroke:none"
         inkscape:connector-curvature="0"
         d=""
         id="path204" />
      <text
         style="font-style:normal;font-weight:bold;font-size:13px;font-family:Arial;text-decoration:none;text-decoration-line:none;fill:#000000;stroke:none"
         id="text206"
         y="291.5"
         x="204.73218"
         text-decoration="none"
         font-weight="bold"
         font-style="normal"
         font-size="13px">Game</text>
    </g>
  </g>
  <g
     id="g218"
     transform="translate(-82,-30)">
    <g
       id="g216">
      <path
         style="fill:none;stroke:none"
         inkscape:connector-curvature="0"
         d=""
         id="path212" />
      <text
         style="font-style:normal;font-weight:normal;font-size:13px;font-family:Arial;text-decoration:none;text-decoration-line:none;fill:#000000;stroke:none"
         id="text214"
         y="314.5"
         x="129"
         text-decoration="none"
         font-weight="normal"
         font-style="normal"
         font-size="13px">+name: string</text>
    </g>
  </g>
  <g
     id="g226"
     transform="translate(-82,-30)">
    <g
       id="g224">
      <path
         style="fill:none;stroke:none"
         inkscape:connector-curvature="0"
         d=""
         id="path220" />
      <text
         style="font-style:normal;font-weight:normal;font-size:13px;font-family:Arial;text-decoration:none;text-decoration-line:none;fill:#000000;stroke:none"
         id="text222"
         y="329.5"
         x="129"
         text-decoration="none"
         font-weight="normal"
         font-style="normal"
         font-size="13px">+master: User</text>
    </g>
  </g>
  <g
     id="g234"
     transform="translate(-82,-30)">
    <g
       id="g232">
      <path
         style="fill:none;stroke:none"
         inkscape:connector-curvature="0"
         d=""
         id="path228" />
      <text
         style="font-style:normal;font-weight:normal;font-size:13px;font-family:Arial;text-decoration:none;text-decoration-line:none;fill:#000000;stroke:none"
         id="text230"
         y="344.5"
         x="129"
         text-decoration="none"
         font-weight="normal"
         font-style="normal"
         font-size="13px">+players: array = Users</text>
    </g>
  </g>
  <g
     id="g242"
     transform="translate(-82,-30)">
    <g
       id="g240">
      <path
         style="fill:none;stroke:none"
         inkscape:connector-curvature="0"
         d=""
         id="path236" />
      <text
         style="font-style:normal;font-weight:normal;font-size:13px;font-family:Arial;text-decoration:none;text-decoration-line:none;fill:#000000;stroke:none"
         id="text238"
         y="359.5"
         x="129"
         text-decoration="none"
         font-weight="normal"
         font-style="normal"
         font-size="13px">+nonPlayers: array = Characters</text>
    </g>
  </g>
  <g
     id="g246"
     transform="translate(-82,-30)">
    <rect
       style="opacity:0.2;fill:#c0c0c0;stroke:none"
       id="rect244"
       height="162"
       width="153.15527"
       y="126"
       x="430" />
  </g>
  <g
     id="g250"
     transform="translate(-82,-30)">
    <rect
       style="fill:#ffffff;stroke:none"
       id="rect248"
       height="162"
       width="153.15527"
       y="119"
       x="423" />
  </g>
  <g
     id="g254"
     transform="translate(-82,-30)">
    <path
       style="fill:none;stroke:#000000;stroke-miterlimit:10"
       inkscape:connector-curvature="0"
       id="path252"
       stroke-miterlimit="10"
       d="M 423,119 H 576.15527 V 281 H 423 Z" />
  </g>
  <g
     id="g258"
     transform="translate(-82,-30)">
    <path
       style="fill:none;stroke:#000000;stroke-miterlimit:10"
       inkscape:connector-curvature="0"
       id="path256"
       stroke-miterlimit="10"
       d="M 423,144 H 576.15527" />
  </g>
  <g
     id="g262"
     transform="translate(-82,-30)">
    <path
       style="fill:none;stroke:#000000;stroke-miterlimit:10"
       inkscape:connector-curvature="0"
       id="path260"
       stroke-miterlimit="10"
       d="M 423,272 H 576.15527" />
  </g>
  <g
     id="g270"
     transform="translate(-82,-30)">
    <g
       id="g268">
      <path
         style="fill:none;stroke:none"
         inkscape:connector-curvature="0"
         d=""
         id="path264" />
      <text
         style="font-style:normal;font-weight:bold;font-size:13px;font-family:Arial;text-decoration:none;text-decoration-line:none;fill:#000000;stroke:none"
         id="text266"
         y="138.5"
         x="471.03857"
         text-decoration="none"
         font-weight="bold"
         font-style="normal"
         font-size="13px">Character</text>
    </g>
  </g>
  <g
     id="g278"
     transform="translate(-82,-30)">
    <g
       id="g276">
      <path
         style="fill:none;stroke:none"
         inkscape:connector-curvature="0"
         d=""
         id="path272" />
      <text
         style="font-style:normal;font-weight:normal;font-size:13px;font-family:Arial;text-decoration:none;text-decoration-line:none;fill:#000000;stroke:none"
         id="text274"
         y="161.5"
         x="428"
         text-decoration="none"
         font-weight="normal"
         font-style="normal"
         font-size="13px">+name: string</text>
    </g>
  </g>
  <g
     id="g286"
     transform="translate(-82,-30)">
    <g
       id="g284">
      <path
         style="fill:none;stroke:none"
         inkscape:connector-curvature="0"
         d=""
         id="path280" />
      <text
         style="font-style:normal;font-weight:normal;font-size:13px;font-family:Arial;text-decoration:none;text-decoration-line:none;fill:#000000;stroke:none"
         id="text282"
         y="176.5"
         x="428"
         text-decoration="none"
         font-weight="normal"
         font-style="normal"
         font-size="13px">+game: Game</text>
    </g>
  </g>
  <g
     id="g294"
     transform="translate(-82,-30)">
    <g
       id="g292">
      <path
         style="fill:none;stroke:none"
         inkscape:connector-curvature="0"
         d=""
         id="path288" />
      <text
         style="font-style:normal;font-weight:normal;font-size:13px;font-family:Arial;text-decoration:none;text-decoration-line:none;fill:#000000;stroke:none"
         id="text290"
         y="191.5"
         x="428"
         text-decoration="none"
         font-weight="normal"
         font-style="normal"
         font-size="13px">+user: User</text>
    </g>
  </g>
  <g
     id="g302"
     transform="translate(-82,-30)">
    <g
       id="g300">
      <path
         style="fill:none;stroke:none"
         inkscape:connector-curvature="0"
         d=""
         id="path296" />
      <text
         style="font-style:normal;font-weight:normal;font-size:13px;font-family:Arial;text-decoration:none;text-decoration-line:none;fill:#000000;stroke:none"
         id="text298"
         y="206.5"
         x="428"
         text-decoration="none"
         font-weight="normal"
         font-style="normal"
         font-size="13px">+played: bool</text>
    </g>
  </g>
  <g
     id="g310"
     transform="translate(-82,-30)">
    <g
       id="g308">
      <path
         style="fill:none;stroke:none"
         inkscape:connector-curvature="0"
         d=""
         id="path304" />
      <text
         style="font-style:normal;font-weight:normal;font-size:13px;font-family:Arial;text-decoration:none;text-decoration-line:none;fill:#000000;stroke:none"
         id="text306"
         y="221.5"
         x="428"
         text-decoration="none"
         font-weight="normal"
         font-style="normal"
         font-size="13px">+abilityList: AbilityList</text>
    </g>
  </g>
  <g
     id="g318"
     transform="translate(-82,-30)">
    <g
       id="g316">
      <path
         style="fill:none;stroke:none"
         inkscape:connector-curvature="0"
         d=""
         id="path312" />
      <text
         style="font-style:normal;font-weight:normal;font-size:13px;font-family:Arial;text-decoration:none;text-decoration-line:none;fill:#000000;stroke:none"
         id="text314"
         y="236.5"
         x="428"
         text-decoration="none"
         font-weight="normal"
         font-style="normal"
         font-size="13px">+class: string</text>
    </g>
  </g>
  <g
     id="g326"
     transform="translate(-82,-30)">
    <g
       id="g324">
      <path
         style="fill:none;stroke:none"
         inkscape:connector-curvature="0"
         d=""
         id="path320" />
      <text
         style="font-style:normal;font-weight:normal;font-size:13px;font-family:Arial;text-decoration:none;text-decoration-line:none;fill:#000000;stroke:none"
         id="text322"
         y="251.5"
         x="428"
         text-decoration="none"
         font-weight="normal"
         font-style="normal"
         font-size="13px">+race: string</text>
    </g>
  </g>
  <g
     id="g334"
     transform="translate(-82,-30)">
    <g
       id="g332">
      <path
         style="fill:none;stroke:none"
         inkscape:connector-curvature="0"
         d=""
         id="path328" />
      <text
         style="font-style:normal;font-weight:normal;font-size:13px;font-family:Arial;text-decoration:none;text-decoration-line:none;fill:#000000;stroke:none"
         id="text330"
         y="266.5"
         x="428"
         text-decoration="none"
         font-weight="normal"
         font-style="normal"
         font-size="13px">+Tags: array = Tag</text>
    </g>
  </g>
  <g
     id="g338"
     transform="translate(-82,-30)">
    <rect
       style="opacity:0.2;fill:#c0c0c0;stroke:none"
       id="rect336"
       height="132"
       width="120"
       y="141"
       x="655" />
  </g>
  <g
     id="g342"
     transform="translate(-82,-30)">
    <rect
       style="fill:#ffffff;stroke:none"
       id="rect340"
       height="132"
       width="120"
       y="134"
       x="648" />
  </g>
  <g
     id="g346"
     transform="translate(-82,-30)">
    <path
       style="fill:none;stroke:#000000;stroke-miterlimit:10"
       inkscape:connector-curvature="0"
       id="path344"
       stroke-miterlimit="10"
       d="M 648,134 H 768 V 266 H 648 Z" />
  </g>
  <g
     id="g350"
     transform="translate(-82,-30)">
    <path
       style="fill:none;stroke:#000000;stroke-miterlimit:10"
       inkscape:connector-curvature="0"
       id="path348"
       stroke-miterlimit="10"
       d="M 648,159 H 768" />
  </g>
  <g
     id="g354"
     transform="translate(-82,-30)">
    <path
       style="fill:none;stroke:#000000;stroke-miterlimit:10"
       inkscape:connector-curvature="0"
       id="path352"
       stroke-miterlimit="10"
       d="M 648,257 H 768" />
  </g>
  <g
     id="g362"
     transform="translate(-82,-30)">
    <g
       id="g360">
      <path
         style="fill:none;stroke:none"
         inkscape:connector-curvature="0"
         d=""
         id="path356" />
      <text
         style="font-style:normal;font-weight:bold;font-size:13px;font-family:Arial;text-decoration:none;text-decoration-line:none;fill:#000000;stroke:none"
         id="text358"
         y="153.5"
         x="680.54639"
         text-decoration="none"
         font-weight="bold"
         font-style="normal"
         font-size="13px">AbilityList</text>
    </g>
  </g>
  <g
     id="g370"
     transform="translate(-82,-30)">
    <g
       id="g368">
      <path
         style="fill:none;stroke:none"
         inkscape:connector-curvature="0"
         d=""
         id="path364" />
      <text
         style="font-style:normal;font-weight:normal;font-size:13px;font-family:Arial;text-decoration:none;text-decoration-line:none;fill:#000000;stroke:none"
         id="text366"
         y="176.5"
         x="653"
         text-decoration="none"
         font-weight="normal"
         font-style="normal"
         font-size="13px">+strength: int</text>
    </g>
  </g>
  <g
     id="g378"
     transform="translate(-82,-30)">
    <g
       id="g376">
      <path
         style="fill:none;stroke:none"
         inkscape:connector-curvature="0"
         d=""
         id="path372" />
      <text
         style="font-style:normal;font-weight:normal;font-size:13px;font-family:Arial;text-decoration:none;text-decoration-line:none;fill:#000000;stroke:none"
         id="text374"
         y="191.5"
         x="653"
         text-decoration="none"
         font-weight="normal"
         font-style="normal"
         font-size="13px">+dexterity: int</text>
    </g>
  </g>
  <g
     id="g386"
     transform="translate(-82,-30)">
    <g
       id="g384">
      <path
         style="fill:none;stroke:none"
         inkscape:connector-curvature="0"
         d=""
         id="path380" />
      <text
         style="font-style:normal;font-weight:normal;font-size:13px;font-family:Arial;text-decoration:none;text-decoration-line:none;fill:#000000;stroke:none"
         id="text382"
         y="206.5"
         x="653"
         text-decoration="none"
         font-weight="normal"
         font-style="normal"
         font-size="13px">+constitution: int</text>
    </g>
  </g>
  <g
     id="g394"
     transform="translate(-82,-30)">
    <g
       id="g392">
      <path
         style="fill:none;stroke:none"
         inkscape:connector-curvature="0"
         d=""
         id="path388" />
      <text
         style="font-style:normal;font-weight:normal;font-size:13px;font-family:Arial;text-decoration:none;text-decoration-line:none;fill:#000000;stroke:none"
         id="text390"
         y="221.5"
         x="653"
         text-decoration="none"
         font-weight="normal"
         font-style="normal"
         font-size="13px">+intelligence: int</text>
    </g>
  </g>
  <g
     id="g402"
     transform="translate(-82,-30)">
    <g
       id="g400">
      <path
         style="fill:none;stroke:none"
         inkscape:connector-curvature="0"
         d=""
         id="path396" />
      <text
         style="font-style:normal;font-weight:normal;font-size:13px;font-family:Arial;text-decoration:none;text-decoration-line:none;fill:#000000;stroke:none"
         id="text398"
         y="236.5"
         x="653"
         text-decoration="none"
         font-weight="normal"
         font-style="normal"
         font-size="13px">+wisdom: int</text>
    </g>
  </g>
  <g
     id="g410"
     transform="translate(-82,-30)">
    <g
       id="g408">
      <path
         style="fill:none;stroke:none"
         inkscape:connector-curvature="0"
         d=""
         id="path404" />
      <text
         style="font-style:normal;font-weight:normal;font-size:13px;font-family:Arial;text-decoration:none;text-decoration-line:none;fill:#000000;stroke:none"
         id="text406"
         y="251.5"
         x="653"
         text-decoration="none"
         font-weight="normal"
         font-style="normal"
         font-size="13px">+charisma: int</text>
    </g>
  </g>
  <g
     id="g414"
     transform="translate(-82,-30)">
    <path
       style="fill:none;stroke:#000000;stroke-miterlimit:10"
       inkscape:connector-curvature="0"
       id="path412"
       stroke-miterlimit="10"
       d="m 577,200 h 70" />
  </g>
  <g
     id="g422"
     transform="translate(-82,-30)">
    <g
       id="g420">
      <path
         style="fill:none;stroke:none"
         inkscape:connector-curvature="0"
         d=""
         id="path416" />
      <text
         style="font-style:normal;font-weight:normal;font-size:13px;font-family:Arial;text-decoration:none;text-decoration-line:none;fill:#000000;stroke:none"
         id="text418"
         y="218.5"
         x="594.5"
         text-decoration="none"
         font-weight="normal"
         font-style="normal"
         font-size="13px">1</text>
    </g>
  </g>
  <g
     id="g430"
     transform="translate(-82,-30)">
    <g
       id="g428">
      <path
         style="fill:none;stroke:none"
         inkscape:connector-curvature="0"
         d=""
         id="path424" />
      <text
         style="font-style:normal;font-weight:normal;font-size:13px;font-family:Arial;text-decoration:none;text-decoration-line:none;fill:#000000;stroke:none"
         id="text426"
         y="218.5"
         x="621.5"
         text-decoration="none"
         font-weight="normal"
         font-style="normal"
         font-size="13px">1</text>
    </g>
  </g>
  <g
     id="g434"
     transform="translate(-82,-30)">
    <path
       style="fill:none;stroke:#000000;stroke-miterlimit:10"
       inkscape:connector-curvature="0"
       id="path432"
       stroke-miterlimit="10"
       d="m 324,135 98,37" />
  </g>
  <g
     id="g442"
     transform="translate(-82,-30)">
    <g
       id="g440">
      <path
         style="fill:none;stroke:none"
         inkscape:connector-curvature="0"
         d=""
         id="path436" />
      <text
         style="font-style:normal;font-weight:normal;font-size:13px;font-family:Arial;text-decoration:none;text-decoration-line:none;fill:#000000;stroke:none"
         id="text438"
         y="160.5"
         x="335.5"
         text-decoration="none"
         font-weight="normal"
         font-style="normal"
         font-size="13px">1</text>
    </g>
  </g>
  <g
     id="g450"
     transform="translate(-82,-30)">
    <g
       id="g448">
      <path
         style="fill:none;stroke:none"
         inkscape:connector-curvature="0"
         d=""
         id="path444" />
      <text
         style="font-style:normal;font-weight:normal;font-size:13px;font-family:Arial;text-decoration:none;text-decoration-line:none;fill:#000000;stroke:none"
         id="text446"
         y="182.5"
         x="387.5"
         text-decoration="none"
         font-weight="normal"
         font-style="normal"
         font-size="13px">0..*</text>
    </g>
  </g>
  <g
     id="g454"
     transform="translate(-82,-30)">
    <path
       style="fill:none;stroke:#000000;stroke-miterlimit:10"
       inkscape:connector-curvature="0"
       id="path452"
       stroke-miterlimit="10"
       d="M 322,279 422,234" />
  </g>
  <g
     id="g462"
     transform="translate(-82,-30)">
    <g
       id="g460">
      <path
         style="fill:none;stroke:none"
         inkscape:connector-curvature="0"
         d=""
         id="path456" />
      <text
         style="font-style:normal;font-weight:normal;font-size:13px;font-family:Arial;text-decoration:none;text-decoration-line:none;fill:#000000;stroke:none"
         id="text458"
         y="287.5"
         x="342.64136"
         text-decoration="none"
         font-weight="normal"
         font-style="normal"
         font-size="13px">1</text>
    </g>
  </g>
  <g
     id="g470"
     transform="translate(-82,-30)">
    <g
       id="g468">
      <path
         style="fill:none;stroke:none"
         inkscape:connector-curvature="0"
         d=""
         id="path464" />
      <text
         style="font-style:normal;font-weight:normal;font-size:13px;font-family:Arial;text-decoration:none;text-decoration-line:none;fill:#000000;stroke:none"
         id="text466"
         y="260.5"
         x="397.5"
         text-decoration="none"
         font-weight="normal"
         font-style="normal"
         font-size="13px">0..*</text>
    </g>
  </g>
  <g
     id="g474"
     transform="translate(-82,-30)">
    <path
       style="fill:none;stroke:#000000;stroke-miterlimit:10"
       inkscape:connector-curvature="0"
       id="path472"
       stroke-miterlimit="10"
       d="M 122,96 H 96 v 232 l 27,-1" />
  </g>
  <g
     id="g482"
     transform="translate(-82,-30)">
    <g
       id="g480">
      <path
         style="fill:none;stroke:none"
         inkscape:connector-curvature="0"
         d=""
         id="path476" />
      <text
         style="font-style:normal;font-weight:normal;font-size:13px;font-family:Arial;text-decoration:none;text-decoration-line:none;fill:#000000;stroke:none"
         id="text478"
         y="89.5"
         x="96.5"
         text-decoration="none"
         font-weight="normal"
         font-style="normal"
         font-size="13px">1</text>
    </g>
  </g>
  <g
     id="g490"
     transform="translate(-82,-30)">
    <g
       id="g488">
      <path
         style="fill:none;stroke:none"
         inkscape:connector-curvature="0"
         d=""
         id="path484" />
      <text
         style="font-style:normal;font-weight:normal;font-size:13px;font-family:Arial;text-decoration:none;text-decoration-line:none;fill:#000000;stroke:none"
         id="text486"
         y="346.5"
         x="91.5"
         text-decoration="none"
         font-weight="normal"
         font-style="normal"
         font-size="13px">0..*</text>
    </g>
  </g>
  <g
     id="g494"
     transform="translate(-82,-30)">
    <path
       style="fill:none;stroke:#000000;stroke-miterlimit:10"
       inkscape:connector-curvature="0"
       id="path492"
       stroke-miterlimit="10"
       d="M 222,158 V 271" />
  </g>
  <g
     id="g502"
     transform="translate(-82,-30)">
    <g
       id="g500">
      <path
         style="fill:none;stroke:none"
         inkscape:connector-curvature="0"
         d=""
         id="path496" />
      <text
         style="font-style:normal;font-weight:normal;font-size:13px;font-family:Arial;text-decoration:none;text-decoration-line:none;fill:#000000;stroke:none"
         id="text498"
         y="185.5"
         x="199.5"
         text-decoration="none"
         font-weight="normal"
         font-style="normal"
         font-size="13px">0..*</text>
    </g>
  </g>
  <g
     id="g510"
     transform="translate(-82,-30)">
    <g
       id="g508">
      <path
         style="fill:none;stroke:none"
         inkscape:connector-curvature="0"
         d=""
         id="path504" />
      <text
         style="font-style:normal;font-weight:normal;font-size:13px;font-family:Arial;text-decoration:none;text-decoration-line:none;fill:#000000;stroke:none"
         id="text506"
         y="255.5"
         x="199.5"
         text-decoration="none"
         font-weight="normal"
         font-style="normal"
         font-size="13px">0..*</text>
    </g>
  </g>
  <g
     id="g514"
     transform="translate(-82,-30)">
    <rect
       style="opacity:0.2;fill:#c0c0c0;stroke:none"
       id="rect512"
       height="72"
       width="186.01709"
       y="375"
       x="413" />
  </g>
  <g
     id="g518"
     transform="translate(-82,-30)">
    <rect
       style="fill:#ffffff;stroke:none"
       id="rect516"
       height="72"
       width="186.01709"
       y="368"
       x="406" />
  </g>
  <g
     id="g522"
     transform="translate(-82,-30)">
    <path
       style="fill:none;stroke:#000000;stroke-miterlimit:10"
       inkscape:connector-curvature="0"
       id="path520"
       stroke-miterlimit="10"
       d="m 406,368 h 186.01709 v 72 H 406 Z" />
  </g>
  <g
     id="g526"
     transform="translate(-82,-30)">
    <path
       style="fill:none;stroke:#000000;stroke-miterlimit:10"
       inkscape:connector-curvature="0"
       id="path524"
       stroke-miterlimit="10"
       d="M 406,393 H 592.01709" />
  </g>
  <g
     id="g530"
     transform="translate(-82,-30)">
    <path
       style="fill:none;stroke:#000000;stroke-miterlimit:10"
       inkscape:connector-curvature="0"
       id="path528"
       stroke-miterlimit="10"
       d="M 406,431 H 592.01709" />
  </g>
  <g
     id="g538"
     transform="translate(-82,-30)">
    <g
       id="g536">
      <path
         style="fill:none;stroke:none"
         inkscape:connector-curvature="0"
         d=""
         id="path532" />
      <text
         style="font-style:normal;font-weight:bold;font-size:13px;font-family:Arial;text-decoration:none;text-decoration-line:none;fill:#000000;stroke:none"
         id="text534"
         y="387.5"
         x="488.52856"
         text-decoration="none"
         font-weight="bold"
         font-style="normal"
         font-size="13px">Tag</text>
    </g>
  </g>
  <g
     id="g546"
     transform="translate(-82,-30)">
    <g
       id="g544">
      <path
         style="fill:none;stroke:none"
         inkscape:connector-curvature="0"
         d=""
         id="path540" />
      <text
         style="font-style:normal;font-weight:normal;font-size:13px;font-family:Arial;text-decoration:none;text-decoration-line:none;fill:#000000;stroke:none"
         id="text542"
         y="410.5"
         x="411"
         text-decoration="none"
         font-weight="normal"
         font-style="normal"
         font-size="13px">+name: string</text>
    </g>
  </g>
  <g
     id="g554"
     transform="translate(-82,-30)">
    <g
       id="g552">
      <path
         style="fill:none;stroke:none"
         inkscape:connector-curvature="0"
         d=""
         id="path548" />
      <text
         style="font-style:normal;font-weight:normal;font-size:13px;font-family:Arial;text-decoration:none;text-decoration-line:none;fill:#000000;stroke:none"
         id="text550"
         y="425.5"
         x="411"
         text-decoration="none"
         font-weight="normal"
         font-style="normal"
         font-size="13px">+characters: array = Character</text>
    </g>
  </g>
  <g
     id="g558"
     transform="translate(-82,-30)">
    <path
       style="fill:none;stroke:#000000;stroke-miterlimit:10"
       inkscape:connector-curvature="0"
       id="path556"
       stroke-miterlimit="10"
       d="m 499,282 v 85" />
  </g>
  <g
     id="g566"
     transform="translate(-82,-30)">
    <g
       id="g564">
      <path
         style="fill:none;stroke:none"
         inkscape:connector-curvature="0"
         d=""
         id="path560" />
      <text
         style="font-style:normal;font-weight:normal;font-size:13px;font-family:Arial;text-decoration:none;text-decoration-line:none;fill:#000000;stroke:none"
         id="text562"
         y="309.5"
         x="476.5"
         text-decoration="none"
         font-weight="normal"
         font-style="normal"
         font-size="13px">1..*</text>
    </g>
  </g>
  <g
     id="g574"
     transform="translate(-82,-30)">
    <g
       id="g572">
      <path
         style="fill:none;stroke:none"
         inkscape:connector-curvature="0"
         d=""
         id="path568" />
      <text
         style="font-style:normal;font-weight:normal;font-size:13px;font-family:Arial;text-decoration:none;text-decoration-line:none;fill:#000000;stroke:none"
         id="text570"
         y="351.5"
         x="476.5"
         text-decoration="none"
         font-weight="normal"
         font-style="normal"
         font-size="13px">0..*</text>
    </g>
  </g>
</svg>
